package 
+{
+	import flash.display.Sprite;
+	import flash.events.Event;
+	
+	/**
+	 * ...
+	 * @author rahul
+	 */
+	public class Main extends Sprite 
+	{
+		
+		public function Main():void 
+		{
+			if (stage) init();
+			else addEventListener(Event.ADDED_TO_STAGE, init);
+		}
+		
Add a comment to this line
+		private function init(e:Event = null):void 
+		{
+			removeEventListener(Event.ADDED_TO_STAGE, init);
+			// entry point
+			var a:drawHash = new drawHash();//draw the tic tac toe board
+			a.sel_diff();
+			a.identify();
+			
+		}
+		
+	}
+	+package 
+{
+	
+	/**
+	 * ...
+	 * @author rahul
+	 */
+	public class drawHash 
+	{
+		public function drawHash() { //constructor
+			trace("drawhash called");
+		}
+		
Add a comment to this line
+		public function sel_diff() { //select difficulty
+			trace("select difficulty called");
+			
+		}
+		
+		public function identify() { //identify user
+			trace("identifying turn");
+			var log:gamelogistics = new gamelogistics();
+			log.mark();
+			log.undo();//if user wants to undo
+		}
+	}
+	
+}







+package 
+{
+	
+	/**
+	 * ...
+	 * @author rahul
+	 */
+	public class gamelogistics 
+	{
+		public function gamelogistics() {
+			trace("beginning logistics");
+		}
+		
+		public function mark() {//mark the square chosen
+			trace( "beginning marking");
Add a comment to this line
+			check();
+		}
+		
+		function check() {//check if there is an order
+			trace("checking marked squares");
+		}
+		
+		public  function undo() {
+			trace("undoing your silly mistakes");
+		}
+	}
+	
+}









+}





